{
    "lectures_exercises": [
        {
            "authors": [
                "christian-huemer",
                "dominik-bork",
                "gertrude-kappel",
                "marion-murzek",
                "marion-scholz"
            ],
            "number": "188391",
            "url": "https://tiss.tuwien.ac.at/course/courseDetails.xhtml?courseNr=188391&semester=2022S",
            "type": "VU",
            "title": "Object-oriented modeling"
        },
        {
            "authors": [
                "gertrude-kappel",
                "michael-schroeder"
            ],
            "number": "188951",
            "url": "https://web-engineering-tuwien.github.io/2022/",
            "type": "VU",
            "title": "Web Engineering"
        },
        {
            "authors": [
                "dominik-bork",
                "gertrude-kappel"
            ],
            "number": "188952",
            "url": "https://tiss.tuwien.ac.at/course/courseDetails.xhtml?courseNr=188952&semester=2022S",
            "type": "VU",
            "title": "Advanced Model Engineering"
        },
        {
            "authors": [
                "christian-huemer",
                "gertrude-kappel"
            ],
            "number": "188978",
            "url": "https://tiss.tuwien.ac.at/course/courseDetails.xhtml?courseNr=188978&semester=2022S",
            "type": "VU",
            "title": "IT Governance"
        },
        {
            "authors": [
                "christian-huemer"
            ],
            "number": "194082",
            "url": "https://podcast.zukunft-denken.eu",
            "type": "VU",
            "title": "Technology for People 2040"
        },
        {
            "authors": [
                "christian-huemer"
            ],
            "number": "195079",
            "url": "https://tiss.tuwien.ac.at/course/courseDetails.xhtml?courseNr=195079&semester=2022S",
            "type": "VU",
            "title": "Fundamental research methods for doctoral students"
        },
        {
            "authors": [
                "marion-scholz"
            ],
            "number": "185A06",
            "url": "https://tiss.tuwien.ac.at/course/courseDetails.xhtml?courseNr=185A06&semester=2022S",
            "type": "VU",
            "title": "Formal Modelling"
        }
    ],
    "seminars_projects": [
        {
            "authors": [
                "christian-huemer",
                "gertrude-kappel"
            ],
            "number": "180779",
            "url": "https://tiss.tuwien.ac.at/course/courseDetails.xhtml?courseNr=180779&semester=2022S",
            "type": "SE",
            "title": "Seminar for Master Students in Business Informatics"
        },
        {
            "authors": [
                "christian-huemer",
                "dominik-bork",
                "gertrude-kappel"
            ],
            "number": "188416",
            "url": "https://tiss.tuwien.ac.at/course/courseDetails.xhtml?courseNr=188416&semester=2022S",
            "type": "PR",
            "title": "Informatics Lab (Freifachpraktikum)"
        },
        {
            "authors": [
                "christian-huemer",
                "dominik-bork",
                "gertrude-kappel"
            ],
            "number": "188446",
            "url": "https://tiss.tuwien.ac.at/course/courseDetails.xhtml?courseNr=188446&semester=2022S",
            "type": "SE",
            "title": "Research Seminar"
        },
        {
            "authors": [
                "christian-huemer",
                "dominik-bork",
                "gertrude-kappel"
            ],
            "number": "188512",
            "url": "https://tiss.tuwien.ac.at/course/courseDetails.xhtml?courseNr=188512&semester=2022S",
            "type": "SE",
            "title": "Literature Seminar for PhD Students"
        },
        {
            "authors": [
                "christian-huemer",
                "dominik-bork",
                "gertrude-kappel"
            ],
            "number": "188926",
            "url": "https://tiss.tuwien.ac.at/course/courseDetails.xhtml?courseNr=188926&semester=2022S",
            "type": "PR",
            "title": "Bachelor Thesis for Informatics and Business Informatics"
        },
        {
            "authors": [
                "dominik-bork",
                "gertrude-kappel"
            ],
            "number": "188953",
            "url": "https://tiss.tuwien.ac.at/course/courseDetails.xhtml?courseNr=188953&semester=2022S",
            "type": "SE",
            "title": "Advanced Model Engineering"
        },
        {
            "authors": [
                "christian-huemer",
                "dominik-bork",
                "gertrude-kappel"
            ],
            "number": "188976",
            "url": "https://tiss.tuwien.ac.at/course/courseDetails.xhtml?courseNr=188976&semester=2022S",
            "type": "PV",
            "title": "Exclusive Tutorial for PhD Students"
        },
        {
            "authors": [
                "christian-huemer",
                "dominik-bork",
                "gertrude-kappel"
            ],
            "number": "194074",
            "url": "https://tiss.tuwien.ac.at/course/courseDetails.xhtml?courseNr=194074&semester=2022S",
            "type": "PR",
            "title": "Project in Computer Science 1"
        },
        {
            "authors": [
                "christian-huemer",
                "dominik-bork",
                "gertrude-kappel"
            ],
            "number": "194075",
            "url": "https://tiss.tuwien.ac.at/course/courseDetails.xhtml?courseNr=194075&semester=2022S",
            "type": "PR",
            "title": "Project in Computer Science 2"
        },
        {
            "authors": [
                "christian-huemer"
            ],
            "number": "180767",
            "url": "http://www.informatik.tuwien.ac.at/honors",
            "type": "SE",
            "title": "Orientation Bachelor with Honors of Informatics and Business Informatics"
        },
        {
            "authors": [
                "christian-huemer"
            ],
            "number": "180772",
            "url": "https://tiss.tuwien.ac.at/course/courseDetails.xhtml?courseNr=180772&semester=2022S",
            "type": "SE",
            "title": "Seminar for Master Students in Data Science"
        },
        {
            "authors": [
                "christian-huemer"
            ],
            "number": "194078",
            "url": "https://tiss.tuwien.ac.at/course/courseDetails.xhtml?courseNr=194078&semester=2022S",
            "type": "SE",
            "title": "Research Methods"
        }
    ],
    "other": []
}